<?xml version="1.0" encoding="utf-8"?>
<!DOCTYPE eagle SYSTEM "eagle.dtd">
<eagle version="9.0.1">
<drawing>
<settings>
<setting alwaysvectorfont="no"/>
<setting verticaltext="up"/>
</settings>
<grid distance="0.01" unitdist="mm" unit="mm" style="lines" multiple="1" display="yes" altdistance="5" altunitdist="mil" altunit="mil"/>
<layers>
<layer number="1" name="Top" color="4" fill="1" visible="yes" active="yes"/>
<layer number="2" name="Route2" color="1" fill="3" visible="no" active="yes"/>
<layer number="3" name="Route3" color="4" fill="3" visible="no" active="yes"/>
<layer number="4" name="Route4" color="1" fill="4" visible="yes" active="yes"/>
<layer number="5" name="Route5" color="4" fill="4" visible="no" active="yes"/>
<layer number="6" name="Route6" color="1" fill="8" visible="no" active="yes"/>
<layer number="7" name="Route7" color="4" fill="8" visible="no" active="yes"/>
<layer number="8" name="Route8" color="1" fill="2" visible="no" active="yes"/>
<layer number="9" name="Route9" color="4" fill="2" visible="no" active="yes"/>
<layer number="10" name="Route10" color="1" fill="7" visible="no" active="yes"/>
<layer number="11" name="Route11" color="4" fill="7" visible="no" active="yes"/>
<layer number="12" name="Route12" color="1" fill="5" visible="no" active="yes"/>
<layer number="13" name="Route13" color="4" fill="5" visible="no" active="yes"/>
<layer number="14" name="Route14" color="1" fill="6" visible="no" active="yes"/>
<layer number="15" name="Route15" color="4" fill="6" visible="no" active="yes"/>
<layer number="16" name="Bottom" color="1" fill="1" visible="yes" active="yes"/>
<layer number="17" name="Pads" color="2" fill="1" visible="yes" active="yes"/>
<layer number="18" name="Vias" color="2" fill="1" visible="yes" active="yes"/>
<layer number="19" name="Unrouted" color="6" fill="1" visible="yes" active="yes"/>
<layer number="20" name="Dimension" color="24" fill="1" visible="yes" active="yes"/>
<layer number="21" name="tPlace" color="7" fill="1" visible="yes" active="yes"/>
<layer number="22" name="bPlace" color="7" fill="1" visible="yes" active="yes"/>
<layer number="23" name="tOrigins" color="15" fill="1" visible="yes" active="yes"/>
<layer number="24" name="bOrigins" color="15" fill="1" visible="yes" active="yes"/>
<layer number="25" name="tNames" color="7" fill="1" visible="yes" active="yes"/>
<layer number="26" name="bNames" color="7" fill="1" visible="yes" active="yes"/>
<layer number="27" name="tValues" color="7" fill="1" visible="yes" active="yes"/>
<layer number="28" name="bValues" color="7" fill="1" visible="yes" active="yes"/>
<layer number="29" name="tStop" color="7" fill="3" visible="no" active="yes"/>
<layer number="30" name="bStop" color="7" fill="6" visible="no" active="yes"/>
<layer number="31" name="tCream" color="7" fill="4" visible="no" active="yes"/>
<layer number="32" name="bCream" color="7" fill="5" visible="no" active="yes"/>
<layer number="33" name="tFinish" color="6" fill="3" visible="no" active="yes"/>
<layer number="34" name="bFinish" color="6" fill="6" visible="no" active="yes"/>
<layer number="35" name="tGlue" color="7" fill="4" visible="no" active="yes"/>
<layer number="36" name="bGlue" color="7" fill="5" visible="no" active="yes"/>
<layer number="37" name="tTest" color="7" fill="1" visible="no" active="yes"/>
<layer number="38" name="bTest" color="7" fill="1" visible="no" active="yes"/>
<layer number="39" name="tKeepout" color="4" fill="11" visible="yes" active="yes"/>
<layer number="40" name="bKeepout" color="1" fill="11" visible="yes" active="yes"/>
<layer number="41" name="tRestrict" color="4" fill="10" visible="yes" active="yes"/>
<layer number="42" name="bRestrict" color="1" fill="10" visible="yes" active="yes"/>
<layer number="43" name="vRestrict" color="2" fill="10" visible="yes" active="yes"/>
<layer number="44" name="Drills" color="7" fill="1" visible="no" active="yes"/>
<layer number="45" name="Holes" color="7" fill="1" visible="no" active="yes"/>
<layer number="46" name="Milling" color="3" fill="1" visible="no" active="yes"/>
<layer number="47" name="Measures" color="7" fill="1" visible="no" active="yes"/>
<layer number="48" name="Document" color="7" fill="1" visible="yes" active="yes"/>
<layer number="49" name="Reference" color="7" fill="1" visible="yes" active="yes"/>
<layer number="50" name="dxf" color="7" fill="1" visible="yes" active="yes"/>
<layer number="51" name="tDocu" color="7" fill="1" visible="yes" active="yes"/>
<layer number="52" name="bDocu" color="7" fill="1" visible="yes" active="yes"/>
<layer number="53" name="tGND_GNDA" color="7" fill="1" visible="yes" active="yes"/>
<layer number="54" name="bGND_GNDA" color="7" fill="1" visible="yes" active="yes"/>
<layer number="56" name="wert" color="7" fill="1" visible="yes" active="yes"/>
<layer number="57" name="tCAD" color="7" fill="1" visible="yes" active="yes"/>
<layer number="58" name="bCAD" color="7" fill="1" visible="yes" active="yes"/>
<layer number="59" name="tCarbon" color="7" fill="1" visible="yes" active="yes"/>
<layer number="60" name="bCarbon" color="7" fill="1" visible="yes" active="yes"/>
<layer number="88" name="SimResults" color="9" fill="1" visible="yes" active="yes"/>
<layer number="89" name="SimProbes" color="9" fill="1" visible="yes" active="yes"/>
<layer number="90" name="Modules" color="5" fill="1" visible="yes" active="yes"/>
<layer number="91" name="Nets" color="2" fill="1" visible="yes" active="yes"/>
<layer number="92" name="Busses" color="1" fill="1" visible="yes" active="yes"/>
<layer number="93" name="Pins" color="2" fill="1" visible="yes" active="yes"/>
<layer number="94" name="Symbols" color="4" fill="1" visible="yes" active="yes"/>
<layer number="95" name="Names" color="7" fill="1" visible="yes" active="yes"/>
<layer number="96" name="Values" color="7" fill="1" visible="yes" active="yes"/>
<layer number="97" name="Info" color="7" fill="1" visible="yes" active="yes"/>
<layer number="98" name="Guide" color="6" fill="1" visible="yes" active="yes"/>
<layer number="100" name="Muster" color="7" fill="1" visible="yes" active="yes"/>
<layer number="101" name="Bemassung" color="7" fill="1" visible="yes" active="yes"/>
<layer number="102" name="descript1" color="7" fill="1" visible="yes" active="yes"/>
<layer number="103" name="HV_Net" color="7" fill="1" visible="yes" active="yes"/>
<layer number="104" name="Name" color="7" fill="1" visible="yes" active="yes"/>
<layer number="105" name="Beschreib" color="7" fill="1" visible="yes" active="yes"/>
<layer number="106" name="BGA-Top" color="7" fill="1" visible="yes" active="yes"/>
<layer number="107" name="BD-Top" color="7" fill="1" visible="yes" active="yes"/>
<layer number="108" name="Measures1" color="7" fill="1" visible="yes" active="yes"/>
<layer number="109" name="Measures2" color="7" fill="1" visible="yes" active="yes"/>
<layer number="110" name="fp0" color="7" fill="1" visible="yes" active="yes"/>
<layer number="111" name="CB1" color="7" fill="1" visible="yes" active="yes"/>
<layer number="112" name="DAQ127,DAQ128,DAQ2543" color="7" fill="1" visible="yes" active="yes"/>
<layer number="113" name="dio1" color="7" fill="1" visible="yes" active="yes"/>
<layer number="114" name="TermoCouple" color="7" fill="1" visible="yes" active="yes"/>
<layer number="115" name="DAC1" color="7" fill="1" visible="yes" active="yes"/>
<layer number="116" name="Patch_BOT" color="7" fill="1" visible="yes" active="yes"/>
<layer number="117" name="OPTO1" color="7" fill="1" visible="yes" active="yes"/>
<layer number="118" name="RELAY" color="7" fill="1" visible="yes" active="yes"/>
<layer number="121" name="tTestdril" color="7" fill="1" visible="yes" active="yes"/>
<layer number="122" name="bTestdril" color="7" fill="1" visible="yes" active="yes"/>
<layer number="123" name="tTestmark" color="7" fill="1" visible="yes" active="yes"/>
<layer number="124" name="bTestmark" color="7" fill="1" visible="yes" active="yes"/>
<layer number="125" name="_tNames" color="7" fill="1" visible="yes" active="yes"/>
<layer number="126" name="_bNames" color="7" fill="1" visible="yes" active="yes"/>
<layer number="127" name="_tValues" color="7" fill="1" visible="yes" active="yes"/>
<layer number="128" name="_bValues" color="7" fill="1" visible="yes" active="yes"/>
<layer number="129" name="Mask" color="7" fill="1" visible="yes" active="yes"/>
<layer number="130" name="tHOT" color="7" fill="1" visible="yes" active="yes"/>
<layer number="131" name="bHOT" color="7" fill="1" visible="yes" active="yes"/>
<layer number="132" name="tNeutral" color="7" fill="1" visible="yes" active="yes"/>
<layer number="133" name="bNeutral" color="7" fill="1" visible="yes" active="yes"/>
<layer number="134" name="tPE" color="7" fill="1" visible="yes" active="yes"/>
<layer number="135" name="bPE" color="7" fill="1" visible="yes" active="yes"/>
<layer number="136" name="t+300V" color="7" fill="1" visible="yes" active="yes"/>
<layer number="137" name="b+300V" color="7" fill="1" visible="yes" active="yes"/>
<layer number="138" name="t-300V" color="7" fill="1" visible="yes" active="yes"/>
<layer number="139" name="b-300V" color="7" fill="1" visible="yes" active="yes"/>
<layer number="140" name="t+150V" color="7" fill="1" visible="yes" active="yes"/>
<layer number="141" name="b+150V" color="7" fill="1" visible="yes" active="yes"/>
<layer number="142" name="tLow" color="7" fill="1" visible="yes" active="yes"/>
<layer number="143" name="bLow" color="7" fill="1" visible="yes" active="yes"/>
<layer number="144" name="Drill_legend" color="7" fill="1" visible="yes" active="yes"/>
<layer number="150" name="Notes" color="7" fill="1" visible="yes" active="yes"/>
<layer number="151" name="HeatSink" color="7" fill="1" visible="yes" active="yes"/>
<layer number="152" name="_bDocu" color="7" fill="1" visible="yes" active="yes"/>
<layer number="153" name="FabDoc1" color="7" fill="1" visible="yes" active="yes"/>
<layer number="154" name="FabDoc2" color="7" fill="1" visible="yes" active="yes"/>
<layer number="155" name="FabDoc3" color="7" fill="1" visible="yes" active="yes"/>
<layer number="199" name="Contour" color="7" fill="1" visible="yes" active="yes"/>
<layer number="200" name="tCommon" color="7" fill="1" visible="yes" active="yes"/>
<layer number="201" name="bCommon" color="7" fill="1" visible="yes" active="yes"/>
<layer number="202" name="202bmp" color="7" fill="1" visible="yes" active="yes"/>
<layer number="203" name="203bmp" color="7" fill="1" visible="yes" active="yes"/>
<layer number="204" name="204bmp" color="7" fill="1" visible="yes" active="yes"/>
<layer number="205" name="205bmp" color="7" fill="1" visible="yes" active="yes"/>
<layer number="206" name="206bmp" color="7" fill="1" visible="yes" active="yes"/>
<layer number="207" name="207bmp" color="7" fill="1" visible="yes" active="yes"/>
<layer number="208" name="208bmp" color="7" fill="1" visible="yes" active="yes"/>
<layer number="209" name="209bmp" color="7" fill="1" visible="yes" active="yes"/>
<layer number="210" name="210bmp" color="7" fill="1" visible="yes" active="yes"/>
<layer number="211" name="211bmp" color="7" fill="1" visible="yes" active="yes"/>
<layer number="212" name="212bmp" color="7" fill="1" visible="yes" active="yes"/>
<layer number="213" name="213bmp" color="7" fill="1" visible="yes" active="yes"/>
<layer number="214" name="214bmp" color="7" fill="1" visible="yes" active="yes"/>
<layer number="215" name="215bmp" color="7" fill="1" visible="yes" active="yes"/>
<layer number="216" name="216bmp" color="7" fill="1" visible="yes" active="yes"/>
<layer number="217" name="217bmp" color="7" fill="1" visible="yes" active="yes"/>
<layer number="218" name="218bmp" color="7" fill="1" visible="yes" active="yes"/>
<layer number="219" name="219bmp" color="7" fill="1" visible="yes" active="yes"/>
<layer number="220" name="220bmp" color="7" fill="1" visible="yes" active="yes"/>
<layer number="221" name="221bmp" color="7" fill="1" visible="yes" active="yes"/>
<layer number="222" name="HIDDEN" color="7" fill="1" visible="yes" active="yes"/>
<layer number="223" name="223bmp" color="7" fill="1" visible="yes" active="yes"/>
<layer number="224" name="224bmp" color="7" fill="1" visible="yes" active="yes"/>
<layer number="248" name="Housing" color="7" fill="1" visible="yes" active="yes"/>
<layer number="249" name="Edge" color="7" fill="1" visible="yes" active="yes"/>
<layer number="250" name="Descript" color="7" fill="1" visible="yes" active="yes"/>
<layer number="251" name="SMDround" color="7" fill="1" visible="yes" active="yes"/>
<layer number="252" name="MMARM-E" color="7" fill="1" visible="yes" active="yes"/>
<layer number="253" name="MM51C2/E" color="7" fill="1" visible="yes" active="yes"/>
<layer number="254" name="OrgLBR" color="7" fill="1" visible="yes" active="yes"/>
</layers>
<library>
<packages>
<package name="M2_KEY_B+M_30X42">
<wire x1="24.925" y1="-4" x2="21.225" y2="-4" width="0.127" layer="20"/>
<wire x1="0" y1="0" x2="0" y2="38" width="0.127" layer="20"/>
<wire x1="0" y1="38" x2="13.25" y2="38" width="0.127" layer="20"/>
<wire x1="16.75" y1="38" x2="30" y2="38" width="0.127" layer="20"/>
<wire x1="30" y1="38" x2="30" y2="0" width="0.127" layer="20"/>
<wire x1="21.225" y1="-4" x2="21.225" y2="-1.1" width="0.127" layer="20"/>
<wire x1="20.025" y1="-1.1" x2="20.025" y2="-4" width="0.127" layer="20"/>
<wire x1="21.225" y1="-1.1" x2="20.025" y2="-1.1" width="0.127" layer="20" curve="180"/>
<wire x1="4.574" y1="0" x2="0" y2="0" width="0.127" layer="20"/>
<wire x1="5.075" y1="-0.5" x2="5.075" y2="-4" width="0.127" layer="20"/>
<wire x1="25.425" y1="0" x2="30" y2="0" width="0.127" layer="20"/>
<wire x1="24.925" y1="-0.5" x2="24.925" y2="-4" width="0.127" layer="20"/>
<wire x1="13.25" y1="38" x2="16.75" y2="38" width="0.127" layer="20" curve="180.818497"/>
<smd name="1" x="24.25" y="-2.6" dx="0.35" dy="2.2" layer="1" rot="R180"/>
<smd name="2" x="24" y="-2.6" dx="0.35" dy="2.2" layer="16"/>
<smd name="3" x="23.75" y="-2.6" dx="0.35" dy="2.2" layer="1" rot="R180"/>
<smd name="4" x="23.5" y="-2.6" dx="0.35" dy="2.2" layer="16"/>
<smd name="5" x="23.25" y="-2.6" dx="0.35" dy="2.2" layer="1" rot="R180"/>
<smd name="6" x="23" y="-2.6" dx="0.35" dy="2.2" layer="16"/>
<smd name="7" x="22.75" y="-2.6" dx="0.35" dy="2.2" layer="1" rot="R180"/>
<smd name="8" x="22.5" y="-2.6" dx="0.35" dy="2.2" layer="16"/>
<smd name="9" x="22.25" y="-2.6" dx="0.35" dy="2.2" layer="1" rot="R180"/>
<smd name="10" x="22" y="-2.6" dx="0.35" dy="2.2" layer="16"/>
<smd name="11" x="21.75" y="-2.6" dx="0.35" dy="2.2" layer="1" rot="R180"/>
<smd name="20" x="19.5" y="-2.6" dx="0.35" dy="2.2" layer="16"/>
<smd name="21" x="19.25" y="-2.6" dx="0.35" dy="2.2" layer="1" rot="R180"/>
<smd name="22" x="19" y="-2.6" dx="0.35" dy="2.2" layer="16"/>
<smd name="23" x="18.75" y="-2.6" dx="0.35" dy="2.2" layer="1" rot="R180"/>
<smd name="24" x="18.5" y="-2.6" dx="0.35" dy="2.2" layer="16"/>
<smd name="25" x="18.25" y="-2.6" dx="0.35" dy="2.2" layer="1" rot="R180"/>
<smd name="26" x="18" y="-2.6" dx="0.35" dy="2.2" layer="16"/>
<smd name="27" x="17.75" y="-2.6" dx="0.35" dy="2.2" layer="1" rot="R180"/>
<smd name="28" x="17.5" y="-2.6" dx="0.35" dy="2.2" layer="16"/>
<smd name="29" x="17.25" y="-2.6" dx="0.35" dy="2.2" layer="1" rot="R180"/>
<smd name="30" x="17" y="-2.6" dx="0.35" dy="2.2" layer="16"/>
<smd name="31" x="16.75" y="-2.6" dx="0.35" dy="2.2" layer="1" rot="R180"/>
<smd name="32" x="16.5" y="-2.6" dx="0.35" dy="2.2" layer="16"/>
<smd name="33" x="16.25" y="-2.6" dx="0.35" dy="2.2" layer="1" rot="R180"/>
<smd name="34" x="16" y="-2.6" dx="0.35" dy="2.2" layer="16"/>
<smd name="35" x="15.75" y="-2.6" dx="0.35" dy="2.2" layer="1" rot="R180"/>
<smd name="36" x="15.5" y="-2.6" dx="0.35" dy="2.2" layer="16"/>
<smd name="37" x="15.25" y="-2.6" dx="0.35" dy="2.2" layer="1" rot="R180"/>
<smd name="38" x="15" y="-2.6" dx="0.35" dy="2.2" layer="16"/>
<smd name="39" x="14.75" y="-2.6" dx="0.35" dy="2.2" layer="1" rot="R180"/>
<smd name="40" x="14.5" y="-2.6" dx="0.35" dy="2.2" layer="16"/>
<smd name="41" x="14.25" y="-2.6" dx="0.35" dy="2.2" layer="1" rot="R180"/>
<smd name="42" x="14" y="-2.6" dx="0.35" dy="2.2" layer="16"/>
<smd name="43" x="13.75" y="-2.6" dx="0.35" dy="2.2" layer="1" rot="R180"/>
<smd name="44" x="13.5" y="-2.6" dx="0.35" dy="2.2" layer="16"/>
<smd name="45" x="13.25" y="-2.6" dx="0.35" dy="2.2" layer="1" rot="R180"/>
<smd name="46" x="13" y="-2.6" dx="0.35" dy="2.2" layer="16"/>
<smd name="47" x="12.75" y="-2.6" dx="0.35" dy="2.2" layer="1" rot="R180"/>
<smd name="48" x="12.5" y="-2.6" dx="0.35" dy="2.2" layer="16"/>
<smd name="49" x="12.25" y="-2.6" dx="0.35" dy="2.2" layer="1" rot="R180"/>
<smd name="50" x="12" y="-2.6" dx="0.35" dy="2.2" layer="16"/>
<smd name="51" x="11.75" y="-2.6" dx="0.35" dy="2.2" layer="1" rot="R180"/>
<smd name="52" x="11.5" y="-2.6" dx="0.35" dy="2.2" layer="16"/>
<smd name="53" x="11.25" y="-2.6" dx="0.35" dy="2.2" layer="1" rot="R180"/>
<smd name="54" x="11" y="-2.6" dx="0.35" dy="2.2" layer="16"/>
<smd name="55" x="10.75" y="-2.6" dx="0.35" dy="2.2" layer="1" rot="R180"/>
<smd name="56" x="10.5" y="-2.6" dx="0.35" dy="2.2" layer="16"/>
<smd name="57" x="10.25" y="-2.6" dx="0.35" dy="2.2" layer="1" rot="R180"/>
<smd name="58" x="10" y="-2.6" dx="0.35" dy="2.2" layer="16"/>
<smd name="67" x="7.75" y="-2.6" dx="0.35" dy="2.2" layer="1" rot="R180"/>
<smd name="68" x="7.5" y="-2.6" dx="0.35" dy="2.2" layer="16"/>
<smd name="69" x="7.25" y="-2.6" dx="0.35" dy="2.2" layer="1" rot="R180"/>
<smd name="70" x="7" y="-2.6" dx="0.35" dy="2.2" layer="16"/>
<smd name="71" x="6.75" y="-2.6" dx="0.35" dy="2.2" layer="1" rot="R180"/>
<smd name="72" x="6.5" y="-2.6" dx="0.35" dy="2.2" layer="16"/>
<smd name="73" x="6.25" y="-2.6" dx="0.35" dy="2.2" layer="1" rot="R180"/>
<smd name="74" x="6" y="-2.6" dx="0.35" dy="2.2" layer="16"/>
<smd name="75" x="5.75" y="-2.6" dx="0.35" dy="2.2" layer="1" rot="R180"/>
<text x="0.7125" y="38.545" size="1.27" layer="25" font="vector" ratio="18">&gt;NAME</text>
<text x="26.0775" y="-3.3125" size="1.27" layer="27" font="vector" ratio="18">&gt;VALUE</text>
<wire x1="9.475" y1="-4" x2="9.475" y2="-1.1" width="0.127" layer="20"/>
<wire x1="8.275" y1="-1.1" x2="8.275" y2="-4" width="0.127" layer="20"/>
<wire x1="9.475" y1="-1.1" x2="8.275" y2="-1.1" width="0.127" layer="20" curve="180"/>
<wire x1="5.083" y1="-4" x2="8.275" y2="-4" width="0.127" layer="20"/>
<wire x1="8.275" y1="-4" x2="8.277" y2="-4" width="0.127" layer="20"/>
<wire x1="9.476" y1="-4" x2="20.023" y2="-4" width="0.127" layer="20"/>
<text x="19.573" y="-0.081" size="0.6096" layer="21">Key B</text>
<text x="7.7" y="-0.146" size="0.6096" layer="21">Key M</text>
<wire x1="24.926" y1="-0.509" x2="24.925" y2="-0.5" width="0.127" layer="20"/>
<wire x1="24.925" y1="-0.5" x2="25.425" y2="0" width="0.127" layer="20" curve="-90"/>
<wire x1="4.574" y1="0" x2="5.074" y2="-0.5" width="0.127" layer="20" curve="-90"/>
</package>
</packages>
<symbols>
<symbol name="M2_KEY_B+M_30X42">
<wire x1="-25.4" y1="43.18" x2="-25.4" y2="27.94" width="0.508" layer="94"/>
<wire x1="-25.4" y1="27.94" x2="-25.4" y2="22.86" width="0.508" layer="94"/>
<wire x1="-25.4" y1="22.86" x2="-25.4" y2="-30.48" width="0.508" layer="94"/>
<wire x1="-25.4" y1="-30.48" x2="-25.4" y2="-35.56" width="0.508" layer="94"/>
<wire x1="-25.4" y1="-35.56" x2="-25.4" y2="-53.34" width="0.508" layer="94"/>
<wire x1="-25.4" y1="-53.34" x2="27.94" y2="-53.34" width="0.508" layer="94"/>
<pin name="CONFIG_3" x="30.48" y="-50.8" length="short" rot="R180"/>
<pin name="3.3V@1" x="-27.94" y="-50.8" length="short" direction="pwr"/>
<wire x1="27.94" y1="43.18" x2="-25.4" y2="43.18" width="0.508" layer="94"/>
<wire x1="27.94" y1="43.18" x2="27.94" y2="27.94" width="0.508" layer="94"/>
<pin name="GND@1" x="30.48" y="-48.26" length="short" direction="pwr" rot="R180"/>
<pin name="3.3V@2" x="-27.94" y="-48.26" length="short" direction="pwr"/>
<pin name="GND@2" x="30.48" y="-45.72" length="short" direction="pwr" rot="R180"/>
<pin name="FULL_CARD_POWER_OFF#" x="-27.94" y="-45.72" length="short"/>
<pin name="USB_D+" x="30.48" y="-43.18" length="short" rot="R180"/>
<pin name="USB_D-" x="30.48" y="-40.64" length="short" rot="R180"/>
<pin name="CONFIG_0" x="30.48" y="-25.4" length="short" rot="R180"/>
<pin name="W_DISABLE1#" x="-27.94" y="-43.18" length="short"/>
<pin name="LED1#/DAS/DSS#" x="-27.94" y="-40.64" length="short"/>
<pin name="GPIO5" x="-27.94" y="-27.94" length="short"/>
<pin name="GPIO6" x="-27.94" y="-25.4" length="short"/>
<pin name="WAKE_ON_WWAN#/GPIO11" x="30.48" y="-22.86" length="short" rot="R180"/>
<pin name="GPIO7" x="-27.94" y="-22.86" length="short"/>
<pin name="DPR" x="30.48" y="-20.32" length="short" rot="R180"/>
<pin name="GPIO10/W_DISABLE#2" x="-27.94" y="-20.32" length="short"/>
<pin name="GND@4" x="30.48" y="-17.78" length="short" rot="R180"/>
<pin name="GND@3" x="30.48" y="-38.1" length="short" direction="pwr" rot="R180"/>
<wire x1="27.94" y1="22.86" x2="27.94" y2="-30.48" width="0.508" layer="94"/>
<wire x1="27.94" y1="-30.48" x2="27.94" y2="-35.56" width="0.508" layer="94"/>
<wire x1="27.94" y1="-35.56" x2="27.94" y2="-53.34" width="0.508" layer="94"/>
<wire x1="27.94" y1="-35.56" x2="-25.4" y2="-35.56" width="0.508" layer="94"/>
<wire x1="27.94" y1="-30.48" x2="-25.4" y2="-30.48" width="0.508" layer="94"/>
<text x="-12.7" y="-33.02" size="1.778" layer="94">Mechanical Key B (12~19)</text>
<pin name="GPIO8" x="-27.94" y="-17.78" length="short"/>
<pin name="PERN1/USB3.0_RX-/SSIC_RXN" x="30.48" y="-15.24" length="short" rot="R180"/>
<pin name="UIM-RESET" x="-27.94" y="-15.24" length="short"/>
<pin name="PERP1/USB3.0_RX+/SSIC_RXP" x="30.48" y="-12.7" length="short" rot="R180"/>
<pin name="UIM-CLK" x="-27.94" y="-12.7" length="short"/>
<pin name="GND@5" x="30.48" y="-10.16" length="short" rot="R180"/>
<pin name="UIM-DATA" x="-27.94" y="-10.16" length="short"/>
<pin name="PETN1/USB3.0_TX-/SSIC_TXN" x="30.48" y="-7.62" length="short" rot="R180"/>
<pin name="UIM-PWR" x="-27.94" y="-7.62" length="short"/>
<pin name="PETP1/USB3.0_TX+/SSIC_TXP" x="30.48" y="-5.08" length="short" rot="R180"/>
<pin name="DEVSLP" x="-27.94" y="-5.08" length="short"/>
<pin name="GND@6" x="30.48" y="-2.54" length="short" rot="R180"/>
<pin name="GPIO0/SMB_CLK" x="-27.94" y="-2.54" length="short"/>
<pin name="GPIO1/SMB_DATA" x="-27.94" y="0" length="short"/>
<pin name="GPIO2/ALERT#" x="-27.94" y="2.54" length="short"/>
<pin name="GPIO3" x="-27.94" y="5.08" length="short"/>
<pin name="PERN0/SATA_B+" x="30.48" y="0" length="short" rot="R180"/>
<pin name="PERP0/SATA_B-" x="30.48" y="2.54" length="short" rot="R180"/>
<pin name="GND@7" x="30.48" y="5.08" length="short" rot="R180"/>
<pin name="PETN0/SATA_A-" x="30.48" y="7.62" length="short" rot="R180"/>
<pin name="GPIO4" x="-27.94" y="7.62" length="short"/>
<pin name="PERST#" x="-27.94" y="10.16" length="short"/>
<pin name="CLKREQ#" x="-27.94" y="12.7" length="short"/>
<pin name="PETP0/SATA_A+" x="30.48" y="10.16" length="short" rot="R180"/>
<pin name="GND@8" x="30.48" y="12.7" length="short" rot="R180"/>
<pin name="REFCLKN" x="30.48" y="15.24" length="short" rot="R180"/>
<pin name="PEWAKE#" x="-27.94" y="15.24" length="short"/>
<pin name="NC@1" x="-27.94" y="17.78" length="short"/>
<pin name="NC@2" x="-27.94" y="20.32" length="short"/>
<pin name="REFCLKP" x="30.48" y="17.78" length="short" rot="R180"/>
<pin name="GND@9" x="30.48" y="20.32" length="short" rot="R180"/>
<wire x1="-25.4" y1="22.86" x2="27.94" y2="22.86" width="0.508" layer="94"/>
<wire x1="27.94" y1="22.86" x2="27.94" y2="27.94" width="0.508" layer="94"/>
<wire x1="27.94" y1="27.94" x2="-25.4" y2="27.94" width="0.508" layer="94"/>
<pin name="RESET#" x="30.48" y="30.48" length="short" rot="R180"/>
<pin name="SUSCLK" x="-27.94" y="30.48" length="short"/>
<text x="-12.7" y="25.4" size="1.778" layer="94">Mechanical Key M (59~66)</text>
<pin name="CONFIG_1" x="30.48" y="33.02" length="short" rot="R180"/>
<pin name="GND@10" x="30.48" y="35.56" length="short" rot="R180"/>
<pin name="GND@11" x="30.48" y="38.1" length="short" rot="R180"/>
<pin name="CONFIG_2" x="30.48" y="40.64" length="short" rot="R180"/>
<pin name="3.3V@3" x="-27.94" y="33.02" length="short"/>
<pin name="3.3V@4" x="-27.94" y="35.56" length="short"/>
<pin name="3.3V@5" x="-27.94" y="38.1" length="short"/>
<text x="-25.4" y="44.45" size="1.778" layer="95">&gt;NAME</text>
<text x="19.05" y="-55.88" size="1.778" layer="95">&gt;VALUE</text>
</symbol>
</symbols>
<devicesets>
<deviceset name="M2_KEY_B+M_30X42" prefix="J">
<gates>
<gate name="G$1" symbol="M2_KEY_B+M_30X42" x="0" y="2.54"/>
</gates>
<devices>
<device name="" package="M2_KEY_B+M_30X42">
<connects>
<connect gate="G$1" pin="3.3V@1" pad="2"/>
<connect gate="G$1" pin="3.3V@2" pad="4"/>
<connect gate="G$1" pin="3.3V@3" pad="70"/>
<connect gate="G$1" pin="3.3V@4" pad="72"/>
<connect gate="G$1" pin="3.3V@5" pad="74"/>
<connect gate="G$1" pin="CLKREQ#" pad="52"/>
<connect gate="G$1" pin="CONFIG_0" pad="21"/>
<connect gate="G$1" pin="CONFIG_1" pad="69"/>
<connect gate="G$1" pin="CONFIG_2" pad="75"/>
<connect gate="G$1" pin="CONFIG_3" pad="1"/>
<connect gate="G$1" pin="DEVSLP" pad="38"/>
<connect gate="G$1" pin="DPR" pad="25"/>
<connect gate="G$1" pin="FULL_CARD_POWER_OFF#" pad="6"/>
<connect gate="G$1" pin="GND@1" pad="3"/>
<connect gate="G$1" pin="GND@10" pad="71"/>
<connect gate="G$1" pin="GND@11" pad="73"/>
<connect gate="G$1" pin="GND@2" pad="5"/>
<connect gate="G$1" pin="GND@3" pad="11"/>
<connect gate="G$1" pin="GND@4" pad="27"/>
<connect gate="G$1" pin="GND@5" pad="33"/>
<connect gate="G$1" pin="GND@6" pad="39"/>
<connect gate="G$1" pin="GND@7" pad="45"/>
<connect gate="G$1" pin="GND@8" pad="51"/>
<connect gate="G$1" pin="GND@9" pad="57"/>
<connect gate="G$1" pin="GPIO0/SMB_CLK" pad="40"/>
<connect gate="G$1" pin="GPIO1/SMB_DATA" pad="42"/>
<connect gate="G$1" pin="GPIO10/W_DISABLE#2" pad="26"/>
<connect gate="G$1" pin="GPIO2/ALERT#" pad="44"/>
<connect gate="G$1" pin="GPIO3" pad="46"/>
<connect gate="G$1" pin="GPIO4" pad="48"/>
<connect gate="G$1" pin="GPIO5" pad="20"/>
<connect gate="G$1" pin="GPIO6" pad="22"/>
<connect gate="G$1" pin="GPIO7" pad="24"/>
<connect gate="G$1" pin="GPIO8" pad="28"/>
<connect gate="G$1" pin="LED1#/DAS/DSS#" pad="10"/>
<connect gate="G$1" pin="NC@1" pad="56"/>
<connect gate="G$1" pin="NC@2" pad="58"/>
<connect gate="G$1" pin="PERN0/SATA_B+" pad="41"/>
<connect gate="G$1" pin="PERN1/USB3.0_RX-/SSIC_RXN" pad="29"/>
<connect gate="G$1" pin="PERP0/SATA_B-" pad="43"/>
<connect gate="G$1" pin="PERP1/USB3.0_RX+/SSIC_RXP" pad="31"/>
<connect gate="G$1" pin="PERST#" pad="50"/>
<connect gate="G$1" pin="PETN0/SATA_A-" pad="47"/>
<connect gate="G$1" pin="PETN1/USB3.0_TX-/SSIC_TXN" pad="35"/>
<connect gate="G$1" pin="PETP0/SATA_A+" pad="49"/>
<connect gate="G$1" pin="PETP1/USB3.0_TX+/SSIC_TXP" pad="37"/>
<connect gate="G$1" pin="PEWAKE#" pad="54"/>
<connect gate="G$1" pin="REFCLKN" pad="53"/>
<connect gate="G$1" pin="REFCLKP" pad="55"/>
<connect gate="G$1" pin="RESET#" pad="67"/>
<connect gate="G$1" pin="SUSCLK" pad="68"/>
<connect gate="G$1" pin="UIM-CLK" pad="32"/>
<connect gate="G$1" pin="UIM-DATA" pad="34"/>
<connect gate="G$1" pin="UIM-PWR" pad="36"/>
<connect gate="G$1" pin="UIM-RESET" pad="30"/>
<connect gate="G$1" pin="USB_D+" pad="7"/>
<connect gate="G$1" pin="USB_D-" pad="9"/>
<connect gate="G$1" pin="WAKE_ON_WWAN#/GPIO11" pad="23"/>
<connect gate="G$1" pin="W_DISABLE1#" pad="8"/>
</connects>
<technologies>
<technology name=""/>
</technologies>
</device>
</devices>
</deviceset>
</devicesets>
</library>
</drawing>
</eagle>
