<?xml version="1.0" encoding="utf-8"?>
<!DOCTYPE eagle SYSTEM "eagle.dtd">
<eagle version="6.6.0">
<drawing>
<settings>
<setting alwaysvectorfont="no"/>
<setting verticaltext="up"/>
</settings>
<grid distance="1" unitdist="mic" unit="mic" style="lines" multiple="1" display="no" altdistance="0.01" altunitdist="inch" altunit="inch"/>
<layers>
<layer number="1" name="Top" color="4" fill="1" visible="yes" active="yes"/>
<layer number="2" name="Route2" color="1" fill="3" visible="no" active="yes"/>
<layer number="3" name="Route3" color="4" fill="3" visible="no" active="yes"/>
<layer number="4" name="Route4" color="1" fill="4" visible="no" active="yes"/>
<layer number="5" name="Route5" color="4" fill="4" visible="no" active="yes"/>
<layer number="6" name="Route6" color="1" fill="8" visible="no" active="yes"/>
<layer number="7" name="Route7" color="4" fill="8" visible="no" active="yes"/>
<layer number="8" name="Route8" color="1" fill="2" visible="no" active="yes"/>
<layer number="9" name="Route9" color="4" fill="2" visible="no" active="yes"/>
<layer number="10" name="Route10" color="1" fill="7" visible="no" active="yes"/>
<layer number="11" name="Route11" color="4" fill="7" visible="no" active="yes"/>
<layer number="12" name="Route12" color="1" fill="5" visible="no" active="yes"/>
<layer number="13" name="Route13" color="4" fill="5" visible="no" active="yes"/>
<layer number="14" name="Route14" color="1" fill="6" visible="no" active="yes"/>
<layer number="15" name="Route15" color="4" fill="6" visible="no" active="yes"/>
<layer number="16" name="Bottom" color="1" fill="1" visible="yes" active="yes"/>
<layer number="17" name="Pads" color="2" fill="1" visible="yes" active="yes"/>
<layer number="18" name="Vias" color="2" fill="1" visible="yes" active="yes"/>
<layer number="19" name="Unrouted" color="6" fill="1" visible="yes" active="yes"/>
<layer number="20" name="Dimension" color="15" fill="1" visible="yes" active="yes"/>
<layer number="21" name="tPlace" color="7" fill="1" visible="yes" active="yes"/>
<layer number="22" name="bPlace" color="7" fill="1" visible="yes" active="yes"/>
<layer number="23" name="tOrigins" color="15" fill="1" visible="yes" active="yes"/>
<layer number="24" name="bOrigins" color="15" fill="1" visible="yes" active="yes"/>
<layer number="25" name="tNames" color="7" fill="1" visible="yes" active="yes"/>
<layer number="26" name="bNames" color="7" fill="1" visible="yes" active="yes"/>
<layer number="27" name="tValues" color="7" fill="1" visible="yes" active="yes"/>
<layer number="28" name="bValues" color="7" fill="1" visible="yes" active="yes"/>
<layer number="29" name="tStop" color="7" fill="3" visible="no" active="yes"/>
<layer number="30" name="bStop" color="7" fill="6" visible="no" active="yes"/>
<layer number="31" name="tCream" color="7" fill="4" visible="no" active="yes"/>
<layer number="32" name="bCream" color="7" fill="5" visible="no" active="yes"/>
<layer number="33" name="tFinish" color="6" fill="3" visible="no" active="yes"/>
<layer number="34" name="bFinish" color="6" fill="6" visible="no" active="yes"/>
<layer number="35" name="tGlue" color="7" fill="4" visible="no" active="yes"/>
<layer number="36" name="bGlue" color="7" fill="5" visible="no" active="yes"/>
<layer number="37" name="tTest" color="7" fill="1" visible="no" active="yes"/>
<layer number="38" name="bTest" color="7" fill="1" visible="no" active="yes"/>
<layer number="39" name="tKeepout" color="4" fill="11" visible="yes" active="yes"/>
<layer number="40" name="bKeepout" color="1" fill="11" visible="yes" active="yes"/>
<layer number="41" name="tRestrict" color="4" fill="10" visible="yes" active="yes"/>
<layer number="42" name="bRestrict" color="1" fill="10" visible="yes" active="yes"/>
<layer number="43" name="vRestrict" color="2" fill="10" visible="yes" active="yes"/>
<layer number="44" name="Drills" color="7" fill="1" visible="no" active="yes"/>
<layer number="45" name="Holes" color="7" fill="1" visible="no" active="yes"/>
<layer number="46" name="Milling" color="3" fill="1" visible="no" active="yes"/>
<layer number="47" name="Measures" color="7" fill="1" visible="no" active="yes"/>
<layer number="48" name="Document" color="7" fill="1" visible="yes" active="yes"/>
<layer number="49" name="Reference" color="7" fill="1" visible="yes" active="yes"/>
<layer number="50" name="dxf" color="7" fill="1" visible="yes" active="yes"/>
<layer number="51" name="tDocu" color="7" fill="1" visible="yes" active="yes"/>
<layer number="52" name="bDocu" color="7" fill="1" visible="yes" active="yes"/>
<layer number="53" name="tGND_GNDA" color="7" fill="1" visible="yes" active="yes"/>
<layer number="54" name="bGND_GNDA" color="7" fill="1" visible="yes" active="yes"/>
<layer number="56" name="wert" color="7" fill="1" visible="yes" active="yes"/>
<layer number="57" name="tCAD" color="7" fill="1" visible="yes" active="yes"/>
<layer number="58" name="bCAD" color="7" fill="1" visible="yes" active="yes"/>
<layer number="59" name="tCarbon" color="7" fill="1" visible="yes" active="yes"/>
<layer number="60" name="bCarbon" color="7" fill="1" visible="yes" active="yes"/>
<layer number="91" name="Nets" color="2" fill="1" visible="yes" active="yes"/>
<layer number="92" name="Busses" color="1" fill="1" visible="yes" active="yes"/>
<layer number="93" name="Pins" color="2" fill="1" visible="yes" active="yes"/>
<layer number="94" name="Symbols" color="4" fill="1" visible="yes" active="yes"/>
<layer number="95" name="Names" color="7" fill="1" visible="yes" active="yes"/>
<layer number="96" name="Values" color="7" fill="1" visible="yes" active="yes"/>
<layer number="97" name="Info" color="7" fill="1" visible="yes" active="yes"/>
<layer number="98" name="Guide" color="6" fill="1" visible="yes" active="yes"/>
<layer number="100" name="Muster" color="7" fill="1" visible="yes" active="yes"/>
<layer number="101" name="Bemassung" color="7" fill="1" visible="yes" active="yes"/>
<layer number="102" name="descript1" color="7" fill="1" visible="yes" active="yes"/>
<layer number="103" name="HV_Net" color="7" fill="1" visible="yes" active="yes"/>
<layer number="104" name="Name" color="7" fill="1" visible="yes" active="yes"/>
<layer number="105" name="Beschreib" color="7" fill="1" visible="yes" active="yes"/>
<layer number="106" name="BGA-Top" color="7" fill="1" visible="yes" active="yes"/>
<layer number="107" name="BD-Top" color="7" fill="1" visible="yes" active="yes"/>
<layer number="108" name="Measures1" color="7" fill="1" visible="yes" active="yes"/>
<layer number="109" name="Measures2" color="7" fill="1" visible="yes" active="yes"/>
<layer number="110" name="fp0" color="7" fill="1" visible="yes" active="yes"/>
<layer number="111" name="CB1" color="7" fill="1" visible="yes" active="yes"/>
<layer number="112" name="DAQ127,DAQ128,DAQ2543" color="7" fill="1" visible="yes" active="yes"/>
<layer number="113" name="dio1" color="7" fill="1" visible="yes" active="yes"/>
<layer number="114" name="TermoCouple" color="7" fill="1" visible="yes" active="yes"/>
<layer number="115" name="DAC1" color="7" fill="1" visible="yes" active="yes"/>
<layer number="116" name="Patch_BOT" color="7" fill="1" visible="yes" active="yes"/>
<layer number="117" name="OPTO1" color="7" fill="1" visible="yes" active="yes"/>
<layer number="118" name="RELAY" color="7" fill="1" visible="yes" active="yes"/>
<layer number="121" name="tTestdril" color="7" fill="1" visible="yes" active="yes"/>
<layer number="122" name="bTestdril" color="7" fill="1" visible="yes" active="yes"/>
<layer number="123" name="tTestmark" color="7" fill="1" visible="yes" active="yes"/>
<layer number="124" name="bTestmark" color="7" fill="1" visible="yes" active="yes"/>
<layer number="125" name="_tNames" color="7" fill="1" visible="yes" active="yes"/>
<layer number="126" name="_bNames" color="7" fill="1" visible="yes" active="yes"/>
<layer number="127" name="_tValues" color="7" fill="1" visible="yes" active="yes"/>
<layer number="128" name="_bValues" color="7" fill="1" visible="yes" active="yes"/>
<layer number="129" name="Mask" color="7" fill="1" visible="yes" active="yes"/>
<layer number="130" name="tHOT" color="7" fill="1" visible="yes" active="yes"/>
<layer number="131" name="bHOT" color="7" fill="1" visible="yes" active="yes"/>
<layer number="132" name="tNeutral" color="7" fill="1" visible="yes" active="yes"/>
<layer number="133" name="bNeutral" color="7" fill="1" visible="yes" active="yes"/>
<layer number="134" name="tPE" color="7" fill="1" visible="yes" active="yes"/>
<layer number="135" name="bPE" color="7" fill="1" visible="yes" active="yes"/>
<layer number="136" name="t+300V" color="7" fill="1" visible="yes" active="yes"/>
<layer number="137" name="b+300V" color="7" fill="1" visible="yes" active="yes"/>
<layer number="138" name="t-300V" color="7" fill="1" visible="yes" active="yes"/>
<layer number="139" name="b-300V" color="7" fill="1" visible="yes" active="yes"/>
<layer number="140" name="t+150V" color="7" fill="1" visible="yes" active="yes"/>
<layer number="141" name="b+150V" color="7" fill="1" visible="yes" active="yes"/>
<layer number="142" name="tLow" color="7" fill="1" visible="yes" active="yes"/>
<layer number="143" name="bLow" color="7" fill="1" visible="yes" active="yes"/>
<layer number="144" name="Drill_legend" color="7" fill="1" visible="yes" active="yes"/>
<layer number="150" name="Notes" color="7" fill="1" visible="yes" active="yes"/>
<layer number="151" name="HeatSink" color="7" fill="1" visible="yes" active="yes"/>
<layer number="152" name="_bDocu" color="7" fill="1" visible="yes" active="yes"/>
<layer number="153" name="FabDoc1" color="7" fill="1" visible="yes" active="yes"/>
<layer number="154" name="FabDoc2" color="7" fill="1" visible="yes" active="yes"/>
<layer number="155" name="FabDoc3" color="7" fill="1" visible="yes" active="yes"/>
<layer number="199" name="Contour" color="7" fill="1" visible="yes" active="yes"/>
<layer number="200" name="tCommon" color="7" fill="1" visible="yes" active="yes"/>
<layer number="201" name="bCommon" color="7" fill="1" visible="yes" active="yes"/>
<layer number="202" name="202bmp" color="7" fill="1" visible="yes" active="yes"/>
<layer number="203" name="203bmp" color="7" fill="1" visible="yes" active="yes"/>
<layer number="204" name="204bmp" color="7" fill="1" visible="yes" active="yes"/>
<layer number="205" name="205bmp" color="7" fill="1" visible="yes" active="yes"/>
<layer number="206" name="206bmp" color="7" fill="1" visible="yes" active="yes"/>
<layer number="207" name="207bmp" color="7" fill="1" visible="yes" active="yes"/>
<layer number="208" name="208bmp" color="7" fill="1" visible="yes" active="yes"/>
<layer number="209" name="209bmp" color="7" fill="1" visible="yes" active="yes"/>
<layer number="210" name="210bmp" color="7" fill="1" visible="yes" active="yes"/>
<layer number="211" name="211bmp" color="7" fill="1" visible="yes" active="yes"/>
<layer number="212" name="212bmp" color="7" fill="1" visible="yes" active="yes"/>
<layer number="213" name="213bmp" color="7" fill="1" visible="yes" active="yes"/>
<layer number="214" name="214bmp" color="7" fill="1" visible="yes" active="yes"/>
<layer number="215" name="215bmp" color="7" fill="1" visible="yes" active="yes"/>
<layer number="216" name="216bmp" color="7" fill="1" visible="yes" active="yes"/>
<layer number="217" name="217bmp" color="7" fill="1" visible="yes" active="yes"/>
<layer number="218" name="218bmp" color="7" fill="1" visible="yes" active="yes"/>
<layer number="219" name="219bmp" color="7" fill="1" visible="yes" active="yes"/>
<layer number="220" name="220bmp" color="7" fill="1" visible="yes" active="yes"/>
<layer number="221" name="221bmp" color="7" fill="1" visible="yes" active="yes"/>
<layer number="222" name="HIDDEN" color="7" fill="1" visible="yes" active="yes"/>
<layer number="223" name="223bmp" color="7" fill="1" visible="yes" active="yes"/>
<layer number="224" name="224bmp" color="7" fill="1" visible="yes" active="yes"/>
<layer number="248" name="Housing" color="7" fill="1" visible="yes" active="yes"/>
<layer number="249" name="Edge" color="7" fill="1" visible="yes" active="yes"/>
<layer number="250" name="Descript" color="7" fill="1" visible="yes" active="yes"/>
<layer number="251" name="SMDround" color="7" fill="1" visible="yes" active="yes"/>
<layer number="252" name="MMARM-E" color="7" fill="1" visible="yes" active="yes"/>
<layer number="253" name="MM51C2/E" color="7" fill="1" visible="yes" active="yes"/>
<layer number="254" name="OrgLBR" color="7" fill="1" visible="yes" active="yes"/>
</layers>
<library>
<packages>
<package name="TPSC107K010R0100">
<wire x1="-2.8" y1="1.55" x2="2.8" y2="1.55" width="0.4064" layer="21"/>
<wire x1="2.8" y1="-1.3075" x2="2.8" y2="-1.55" width="0.4064" layer="21"/>
<wire x1="2.8" y1="-1.55" x2="-2.8" y2="-1.55" width="0.4064" layer="21"/>
<wire x1="-2.8" y1="-1.55" x2="-2.8" y2="-1.3076" width="0.4064" layer="21"/>
<wire x1="2.8" y1="1.5501" x2="2.8" y2="1.3076" width="0.4064" layer="21"/>
<wire x1="-2.8" y1="1.3076" x2="-2.8" y2="1.55" width="0.4064" layer="21"/>
<wire x1="3.5065" y1="-1.5811" x2="4.144" y2="-1.5811" width="0.4064" layer="21"/>
<wire x1="3.8252" y1="-1.8999" x2="3.8252" y2="-1.2624" width="0.4064" layer="21"/>
<smd name="+" x="2.625" y="0" dx="2.75" dy="1.8" layer="1"/>
<smd name="-" x="-2.625" y="0" dx="2.75" dy="1.8" layer="1"/>
<text x="-2.8575" y="3.81" size="1.27" layer="25" font="vector" ratio="18">&gt;NAME</text>
<text x="-3.4925" y="2.2225" size="1.27" layer="27" font="vector" ratio="18">&gt;VALUE</text>
<text x="2.3019" y="-0.7144" size="1.4224" layer="51" font="vector" ratio="18">+</text>
</package>
</packages>
<symbols>
<symbol name="CE">
<rectangle x1="-1.651" y1="-1.27" x2="1.651" y2="-0.381" layer="94"/>
<wire x1="-1.524" y1="0.381" x2="1.524" y2="0.381" width="0.254" layer="94"/>
<wire x1="1.524" y1="0.381" x2="1.524" y2="1.27" width="0.254" layer="94"/>
<wire x1="-1.524" y1="1.27" x2="-1.524" y2="0.381" width="0.254" layer="94"/>
<wire x1="-1.524" y1="1.27" x2="1.524" y2="1.27" width="0.254" layer="94"/>
<pin name="+" x="0" y="3.81" visible="off" length="short" direction="pas" rot="R270"/>
<pin name="-" x="0" y="-3.81" visible="off" length="short" direction="pas" rot="R90"/>
<text x="2.5717" y="-0.3111" size="1.4224" layer="95" font="vector">&gt;NAME</text>
<text x="-0.5842" y="1.6764" size="1.27" layer="94" rot="R90">+</text>
<text x="2.5717" y="-2.2161" size="1.4224" layer="96" font="vector">&gt;VALUE</text>
</symbol>
</symbols>
<devicesets>
<deviceset name="TPSC107K010R0100" prefix="C">
<description>NAME:TPSC107K010R0100;DESC:CAP TANT 100UF 10V 10% 2312 -55C +125C RoHS;SUP:Digikey 478-1765-1-ND;VER:004</description>
<gates>
<gate name="G$1" symbol="CE" x="0" y="0"/>
</gates>
<devices>
<device name="" package="TPSC107K010R0100">
<connects>
<connect gate="G$1" pin="+" pad="+"/>
<connect gate="G$1" pin="-" pad="-"/>
</connects>
<technologies>
<technology name=""/>
</technologies>
</device>
</devices>
</deviceset>
</devicesets>
</library>
</drawing>
</eagle>
